%!Adobe-FontList 1.22
%Locale:0x409

%BeginFont
Handler:DirectoryHandler
FontType:Invalid
OutlineFileName:/Users/sxl1357/Desktop/CCS118_CCS1021504246-001_100 Days Mission Implementation Report 2021 Print COLLECT/Document fonts/AdobeFnt22.lst
FileLength:2873
FileModTime:660043551
%EndFont

%BeginFont
Handler:DirectoryHandler
FontType:TrueType
FontName:Arial-BoldMT
FamilyName:Arial
StyleName:Bold
MenuName:Arial
StyleBits:2
WeightClass:700
WidthClass:5
AngleClass:0
FullName:Arial Bold
WritingScript:Roman
OutlineFileName:/Users/sxl1357/Desktop/CCS118_CCS1021504246-001_100 Days Mission Implementation Report 2021 Print COLLECT/Document fonts/Arial Bold.ttf
DataFormat:sfntData
hasSVG:no
VariableFontType:NonVariableFont
FileLength:750984
FileModTime:660043542
NameArray:0,Mac,4,Arial Bold
NameArray:0,Win,1,Arial
%EndFont

%BeginFont
Handler:DirectoryHandler
FontType:Type1
FontName:MinionPro-Regular
FamilyName:Minion Pro
StyleName:Regular
MenuName:Minion Pro
StyleBits:0
WeightClass:400
WidthClass:5
AngleClass:0
FullName:Minion Pro
WritingScript:Roman
OutlineFileName:/Users/sxl1357/Desktop/CCS118_CCS1021504246-001_100 Days Mission Implementation Report 2021 Print COLLECT/Document fonts/MinionPro-Regular.otf
DataFormat:sfntData
UsesStandardEncoding:yes
isCFF:yes
hasSVG:no
VariableFontType:NonVariableFont
FileLength:217280
FileModTime:389018482
DesignSize:110
NameArray:0,Mac,4,Minion Pro
NameArray:0,Win,1,Minion Pro
%EndFont

%BeginFont
Handler:DirectoryHandler
FontType:TrueType
FontName:Sailec-Bold
FamilyName:Sailec-Bold
StyleName:☞
MenuName:Sailec-Bold
StyleBits:2
WeightClass:400
WidthClass:5
AngleClass:0
FullName:☞Sailec Bold
WritingScript:Roman
OutlineFileName:/Users/sxl1357/Desktop/CCS118_CCS1021504246-001_100 Days Mission Implementation Report 2021 Print COLLECT/Document fonts/Sailec Bold.ttf
DataFormat:sfntData
hasSVG:no
VariableFontType:NonVariableFont
FileLength:87852
FileModTime:588083660
NameArray:0,Mac,4,Sailec Bold
NameArray:0,Win,1,Sailec-Bold
%EndFont

%BeginFont
Handler:DirectoryHandler
FontType:TrueType
FontName:Sailec-Light
FamilyName:Sailec-Light
StyleName:☞
MenuName:Sailec-Light
StyleBits:0
WeightClass:400
WidthClass:5
AngleClass:0
FullName:☞Sailec Light
WritingScript:Roman
OutlineFileName:/Users/sxl1357/Desktop/CCS118_CCS1021504246-001_100 Days Mission Implementation Report 2021 Print COLLECT/Document fonts/Sailec Light.ttf
DataFormat:sfntData
hasSVG:no
VariableFontType:NonVariableFont
FileLength:89744
FileModTime:588083534
NameArray:0,Mac,4,Sailec Light
NameArray:0,Win,1,Sailec-Light
%EndFont

%BeginFont
Handler:DirectoryHandler
FontType:TrueType
FontName:Sailec-Medium
FamilyName:Sailec-Medium
StyleName:☞
MenuName:Sailec-Medium
StyleBits:0
WeightClass:400
WidthClass:5
AngleClass:0
FullName:☞Sailec Medium
WritingScript:Roman
OutlineFileName:/Users/sxl1357/Desktop/CCS118_CCS1021504246-001_100 Days Mission Implementation Report 2021 Print COLLECT/Document fonts/Sailec Medium.ttf
DataFormat:sfntData
hasSVG:no
VariableFontType:NonVariableFont
FileLength:87384
FileModTime:588083840
NameArray:0,Mac,4,Sailec Medium
NameArray:0,Win,1,Sailec-Medium
%EndFont

